Unnamed: 0,No,Pertanyaan,Jawaban,product_category,question_category,spec
0,A.1,hi,"Selamat datang di ERHA ENDLESS INNOVATION. Perkenalkan saya ELSA. Event ini adalah rangkaian acara dari Anniversary ERHA ke 23, ERHA sebagai innovative brand ingin menyampaikan berbagai inovasi yang kami lakukan untuk mempermudah pengalamanmu bersama ERHA. ELSA akan dengan senang hati memberikan informasi untuk kamu.",bot,greeting,bot greeting
1,B.1,"Apakah kamu mau tahu, apa saja yang ada di ERHA Endless Innovation Event ini?","Di dalam ERHA Endless Innovation Event, kami punya beragam zona yang bisa kamu kunjungi untuk mendapatkan kulit sehatmu. ada Zona Ultimate Skin Care, Zona Creative Skin Care,  Zona Ultimate Dermabeauty dan Zona Fast    & Instant Dermabeauty. Selain itu kamu juga bisa menemukan beragam innovasi yang kami lakukan untuk kamu. dan tentu saja banyak sekali promo menarik selama event berlangsung.",event,directory,event directory
2,B.2,"Apa kamu mau tahu, apa saja yang bisa kamu lakukan di zona-zona tersebut?","DI setiap zona, terdapat booth dari brand yang ERHA miliki, masing-masing brand punya solusi terbaik untuk kulit atau rambutmu. kamu juga bisa melakukan konsultasi dengan skin expert kami, mendapatkan informasi detail mengenai produk dan program kami, serta melakukan pembelian produk dan program yang tersedia. Pastinya ada promo menarik yang tersedia di setiap booth loh.",zona,content,zona content
3,B.3,Promo menarik apa saja yang tersedia di ERHA Endless Innovation?,promo event loreimpsum,event,promotion,event promotion
4,B.4,"selain promo menarik, kamu juga bisa ikutan giveaway challenge. Mau tahu gimana caranya?",giveaway loreimpsum,giveaway,promotion,giveaway promotion
5,B.5,Apa kamu mau tahu seluruh rangkaian acara pada event kali ini?,"selain promo menarik yang tersedia, kita juga punya rangkaian acara yang menarik loh. rangkaian acara loremipsum.",promo,content,promo content
6,B.6,"Berkaitan dengan ERHA Endless Innovation, banyak loh innovasi yang kami lakukan, baik di product innovation maupun service innovation.&#10;ada hal baru yang keren banget buat mempermudah digital experience kamu di ERHA. apakah kamu mau tahu?","Ya, Sebagai leading dermatology brand di Indonesia, ERHA selalu berkomitmen untuk terus    berinovasi melalui product dan service, ERHA memiliki innovasi untuk memberikan digital experience melalui: - ERHA BUDDY, aplikasi baru untuk bisa mengakses ERHA dari mana saja, kapan saja. sehingga kamu tidak lagi terbatas jarak dan waktu untuk mendapatkan pelayanan kami. Baik untuk konsultasi online, melakukan pemesanan janji temu, membeli produk dan treatment, dan mendapatkan segala informasi tentang ERHA. Segera download ERHA Buddy sekarang di gadgetmu ya.",dermatology,innovation,dermatology innovation
7,B.7,"Selain ERHA Buddy, kita juga punya Innovasi baru untuk bisa mendeteksi kondisi kulitmu. apakah kamu mau tahu?","- SKIN AGE DETECTOR, alat deteksi kulit baru yang tersedia di ERHA, untuk bisa menganalisa    umur kulit kamu dan juga masalah kulit yang kamu alami. Sehingga dapat mempermudah kamu untuk memilih produk skin care atau program klinis. Kamu mau coba skin age detector ini? kamu bisa langsung cari skin age detector di dalam ERHA Endless Innovation Event ini.",skin age detector,innovation,skin age detector innovation
8,B.31,"Setelah kamu merasakan experience di ERHA Endless Innovation ini, ELSA yakin kamu mau coba merasakan experience di klinik ERHA ULTIMATE. Mau tahu lokasi terdekat ERHA ULTIMATE?","Kamu bisa merasakan experience di ERHA ULTIMATE terdekati di: ERHA ULTIMATE SENAYAN CITY di Senayan City Lantai 4 ERHA ULTIMATE PASIFIC PLACE di Pasific Place Lantai 2 ERHA ULTIMATE GANDARIA CITY di Gandaria City Lantai LG ERHA ULTIMATE PONDOK INDAH di Jl.Sultan Iskandar Muda no.31, Jakarta Selatan. ERHA ULTIMATE GRAND INDONESIA di Grand Indonesia Lantai LG",bot,find us,bot find us
9,C.1,terima kasih,"Terima kasih sudah ngobrol sama ELSA ya, kalo ada informasi lainnya yang kamu butuhkan, kamu bisa langsung kunjungi client care yang ada di Event ini, atau kamu bisa mengakses ERHA BUDDY, atau klik www.erha.co.id (atau erha.ultimate.co.id) Selain itu kamu juga bisa mengirimkan pesan melalui Whastapp ke ELSA di 081121212121",bot,closing,bot closing
10,B.9,DI ERHA kamu bisa mendapatkan solusi tepat secara personalized untuk Anti Aging Solution.   kita punya rangkaian produk dan program yang cocok buat kamu. kamu butuh informasi terkait produk atau program?,ERHA Age Corrector hadir sebagai solusi peremajaan kulit agar tampak awet muda. Semua produk ERHA Age Corrector diformulasikan secara efektif dan diuji secara langsung oleh Dermatologis. Inovasi terbaru dari ERHA AGE CORRECTOR adalah Peptides and Antioxidant Eye Serum. Serum khusus untuk membantu menyamarkan tanda-tanda penuaan di area mata. Dengan kandungan Peptides & Antioxidants membantu menyamarkan garis halus dan kerutan di area mata serta NATURAL BOTOX-LIKE EFFECT memberikan efek kencang dan kulit mata yang lebih elastis seperti efek Botox. Kulit sekitar mata tampak lebih kencang dan sehat. Kunjungi booth ERHA AGE CORRECTOR untuk informasi lengkap terkait produk yang tersedia ya.,anti aging,solution,anti aging solution
11,B.10,DI ERHA kamu bisa mendapatkan solusi tepat secara personalized untuk Anti Aging Solution.   kita punya rangkaian produk dan program yang cocok buat kamu. kamu butuh informasi terkait produk atau program?,ERHA Age Corrector hadir sebagai solusi peremajaan kulit agar tampak awet muda. Semua produk ERHA Age Corrector diformulasikan secara efektif dan diuji secara langsung oleh Dermatologis. Inovasi terbaru dari ERHA AGE CORRECTOR adalah Peptides and Antioxidant Eye Serum. Serum khusus untuk membantu menyamarkan tanda-tanda penuaan di area mata. Dengan kandungan Peptides & Antioxidants membantu menyamarkan garis halus dan kerutan di area mata serta NATURAL BOTOX-LIKE EFFECT memberikan efek kencang dan kulit mata yang lebih elastis seperti efek Botox. Kulit sekitar mata tampak lebih kencang dan sehat. Kunjungi booth ERHA AGE CORRECTOR untuk informasi lengkap terkait produk yang tersedia ya.,anti aging,produk,anti aging produk
12,B.11,DI ERHA kamu bisa mendapatkan solusi tepat secara personalized untuk Anti Aging Solution.   kita punya rangkaian produk dan program yang cocok buat kamu. kamu butuh informasi terkait produk atau program?,"ERHA ULTIMATE ANTI AGING adalah lini brand dari Ultimate Dermabeauty yang memberikan beberapa pilihan program, solusi untuk mengatasi tanda-tanda penuaan kulit Tanda-tanda penuaan kulit akan semakin terlihat jelas seiring pertambahan usia. ERHA ULTIMATE ANTI AGING punya banyak program yang bisa kamu pilih sesuai kebutuhanmu Inovasi terbaru dari ERHA ULTIMATE ANTI AGING adalah Ultimate Younger Program yang merupakan ultimate younger look solution. Penurunan kualitas kolagen & elastin saat kulit mengalami penuaan menyebabkan pori - pori membesar, garis halus & kerutan, serta kulit kendur. Ultimate Younger Program merupakan solusi untuk mengatasi semua tanda penuaan kulit seperti kerutan dan garis halus, noda kehitaman, kulit kendur, kulit kusam dan kasar. Dapatkan skin goals dengan memiliki wajah tampak lebih muda, garis halus dan kerutan berkurang melalui program ini. Melalui konsep 5C, Clear Program, Clear Plan, Clear Cost, Clear Duration dan Clear Skin Goals,   Anda bisa mendapatkan solusi secara personalized dengan bantuan dari expert dermatologist kami, berbagai pilihan treatment dengan alat medis yang canggih dan rangkaian produk teruji klinis. Kunjungi booth ERHA ULTIMATE ANTI AGING untuk informasi lengkap terkait program yang tersedia ya.",anti aging,program,anti aging program
13,B.12,Dapatkan solusi pencerah wajah dari Brightening Specialist. ERHA memiliki rangkaian produk dan program yang cocok buat kamu. kamu butuh informasi terkait produk atau program?,"ERHA Truwhite menghargai keragaman etnis dan warna kulit konsumen Indonesia, memahami bahwa kulit yang cantik adalah kulit cerah bersinar sesuai versi terbaik masing-masing. ERHA Truwhite hadir sebagai solusi brightening yang lengkap mulai dari face series hingga body series, berdasar pada formula ahli dermatologi dan telah melalui uji klinis sehingga kualitas dan efektifitas produk terpercaya. Rangkaian produk ERHA Truwhite membantu menjaga dan memperbaiki kondisi kulit kusam agar lebih sehat, cerah, glowing serta menjadi sumber inspirasi untuk tampil bersinar yang sesungguhnya. Inovasi terbaru dari ERHA TRUWHITE adalah Niacinamide & Peptide Dark Spot Corrector. Teruji klinis 11X LEBIH EFEKTIF membantu menyamarkan flek hitam dalam 7 HARI *. Diformulasikan dengan 2% GenowhiteTM dan 4% Niacinamide secara aktif membantu menyamarkan dan mengurangi tampilan flek hitam pada wajah. Kunjungi booth ERHA TRUWHITE untuk informasi lengkap terkait produk yang tersedia ya.",brightening,solution,brightening solution
14,B.13,Dapatkan solusi pencerah wajah dari Brightening Specialist. ERHA memiliki rangkaian produk dan program yang cocok buat kamu. kamu butuh informasi terkait produk atau program?,"ERHA Truwhite menghargai keragaman etnis dan warna kulit konsumen Indonesia, memahami bahwa kulit yang cantik adalah kulit cerah bersinar sesuai versi terbaik masing-masing. ERHA Truwhite hadir sebagai solusi brightening yang lengkap mulai dari face series hingga body series, berdasar pada formula ahli dermatologi dan telah melalui uji klinis sehingga kualitas dan efektifitas produk terpercaya. Rangkaian produk ERHA Truwhite membantu menjaga dan memperbaiki kondisi kulit kusam agar lebih sehat, cerah, glowing serta menjadi sumber inspirasi untuk tampil bersinar yang sesungguhnya. Inovasi terbaru dari ERHA TRUWHITE adalah Niacinamide & Peptide Dark Spot Corrector. Teruji klinis 11X LEBIH EFEKTIF membantu menyamarkan flek hitam dalam 7 HARI *. Diformulasikan dengan 2% GenowhiteTM dan 4% Niacinamide secara aktif membantu menyamarkan dan mengurangi tampilan flek hitam pada wajah. Kunjungi booth ERHA TRUWHITE untuk informasi lengkap terkait produk yang tersedia ya.",brightening,produk,brightening produk
15,B.14,Dapatkan solusi pencerah wajah dari Brightening Specialist. ERHA memiliki rangkaian produk dan program yang cocok buat kamu. kamu butuh informasi terkait produk atau program?,"ERHA ULTIMATE BRIGHTENING adalah lini brand dari Ultimate Dermabeauty, yang memberikan berbagai personalized program yang dirancang oleh Dokter/Dermatologist ERHA, disesuaikan dengan kebutuhan kulitmu untuk bisa mendapatkan kulit yang sehat, terlihat segar, glowing & stunning. Inovasi terbaru dari ERHA ULTIMATE BRIGHTENING adalah Glow Glam Program yang merupakan Healthy & Glowing Skin Solution. Solusi untuk mengangkat sel kulit mati dan memberikan ekstra hidrasi agar kulit tampak lebih sehat dan bercahaya Melalui konsep 5C, Clear Program, Clear Plan, Clear Cost, Clear Duration dan Clear Skin Goals,   Anda bisa mendapatkan solusi secara personalized dengan bantuan dari expert dermatologist kami, berbagai pilihan treatment dengan alat medis yang canggih dan rangkaian produk teruji klinis. kunjungi booth ERHA ULTIMATE BRIGHTENING untuk informasi lengkap terkait program yang tersedia ya.",brightening,program,brightening program
16,B.15,DI ERHA kamu bisa mendapatkan solusi tepat secara personalized untuk Acne Care & Cure Solution. kita punya rangkaian produk dan program yang cocok buat masing-masing kamu. kamu butuh informasi terkait produk atau program?,"Lahir dari 22 tahun pengalaman di bidang perawatan kulit, ERHA kini menghadirkan ERHA ACNEACT; solusi lengkap untuk masalah jerawat.&&Kami mengerti bahwa memilih perawatan untuk kulit berjerawat tidaklah mudah. Oleh karena itu, ERHA ACNEACT secara khusus merancang rangkaian produk perawatan untuk kulit berjerawat. Diformulasikan oleh dermatologis dan didukung dengan bahan-bahan yang teruji secara klinis aman dan efektif, ERHA ACNEACT menghasilkan produk terbaik #DariExpertnya untuk menjawab setiap kebutuhan kulit berjerawat. Inovasi terbaru dari ERHA ACNEACT adalah ERHA ACNEACT PORE CLEAR PAD. Erha Acneact    Pore Clear Pad adalah kapas bertekstur dengan formula pH balance memiliki fungsi eksfoliasi secara lembut dan instan pada kulit. kunjungi booth ERHA ACNEACT untuk informasi Promo dan Produk ya.",acne care & cure,solution,acne care & cure solution
17,B.16,DI ERHA kamu bisa mendapatkan solusi tepat secara personalized untuk Acne Care & Cure Solution. kita punya rangkaian produk dan program yang cocok buat masing-masing kamu. kamu butuh informasi terkait produk atau program?,"Lahir dari 22 tahun pengalaman di bidang perawatan kulit, ERHA kini menghadirkan ERHA ACNEACT; solusi lengkap untuk masalah jerawat.&&Kami mengerti bahwa memilih perawatan untuk kulit berjerawat tidaklah mudah. Oleh karena itu, ERHA ACNEACT secara khusus merancang rangkaian produk perawatan untuk kulit berjerawat. Diformulasikan oleh dermatologis dan didukung dengan bahan-bahan yang teruji secara klinis aman dan efektif, ERHA ACNEACT menghasilkan produk terbaik #DariExpertnya untuk menjawab setiap kebutuhan kulit berjerawat. Inovasi terbaru dari ERHA ACNEACT adalah ERHA ACNEACT PORE CLEAR PAD. Erha Acneact    Pore Clear Pad adalah kapas bertekstur dengan formula pH balance memiliki fungsi eksfoliasi secara lembut dan instan pada kulit. kunjungi booth ERHA ACNEACT untuk informasi Promo dan Produk ya.",acne care & cure,produk,acne care & cure produk
18,B.17,DI ERHA kamu bisa mendapatkan solusi tepat secara personalized untuk Acne Care & Cure Solution. kita punya rangkaian produk dan program yang cocok buat masing-masing kamu. kamu butuh informasi terkait produk atau program?,"ERHA ULTIMATE ACNE CURE adalah lini brand dari Ultimate Dermabeauty adalah lini brand dari Ultimate Dermabeauty, yang memberikan berbagai personalized program yang dirancang oleh Dokter/Dermatologist ERHA, disesuaikan dengan kebutuhan kulitmu untuk bisa mendapatkan kulit bebas dari jerawat dan bekasnya. Inovasi terbaru dari ERHA ULTIMATE ACNE CURE adalah No Acne No Cry Program yang merupakan solusi untuk jerawat aktif. Solusi ultimate yang efektif dan terbukti dalam mengatasi permasalahan jerawat aktif untuk segala usia baik pria maupun wanita. Melalui konsep 5C, Clear Program, Clear Plan, Clear Cost, Clear Duration dan Clear Skin Goals,   Kamu bisa mendapatkan solusi secara personalized dengan bantuan dari expert dermatologist kami, berbagai pilihan treatment dengan alat medis yang canggih dan rangkaian produk teruji klinis. kunjungi booth ERHA ULTIMATE ACNE CURE untuk informasi lengkap terkait program yang tersedia ya.",acne care & cure,program,acne care & cure program
19,B.18,DI ERHA kamu bisa mendapatkan solusi tepat secara personalized untuk Hair Solution. kita punya rangkaian produk dan program yang cocok buat kamu. Kamu butuh informasi terkait produk atau program?,"Seiring berjalannya waktu, ERHA terus berinovasi untuk menyediakan produk dan layanan yang memudahkan pelanggan. Dalam kategori perawatan rambut, terdapat 2 opsi perawatan yang bisa disesuaikan dengan kebutuhan masing-masing individu. Baik dengan penggunaan produk yang bisa didapatkan dimana saja, maupun personalized product & treatment yang dapat disesuaikan dengan permasalahan rambut masing-masing. Berikut untuk informasi lebih lengkapnya:",hair,solution,hair solution
20,B.19,DI ERHA kamu bisa mendapatkan solusi tepat secara personalized untuk Hair Solution. kita punya rangkaian produk dan program yang cocok buat kamu. Kamu butuh informasi terkait produk atau program?,"ERHAIR adalah rangkaian perawatan rambut & kulit kepala yang direkomendasikan oleh ahli dermatologi untuk mewujudkan rambut dan kulit kepala yang lebih sehat. Diformulasikan dengan kombinasi bahan aktif dan natural yang telah teruji klinis, sehingga menghadirkan solusi efektif dan dapat digunakan sehari-hari. Inovasi terbaru dari ERHAIR adalah SCALPERFECT DRY SHAMPOO. Produk ini dapat menyerap minyak berlebih dengan cepat sekaligus memberikan manfaat antibakteri & antiinflamasi untuk menjaga kesehatan kulit kepala. Cocok untuk kamu yang memiliki kulit kepala berminyak dan ingin tampil prima dengan rambut bebas lepek tanpa harus keramas. Kunjungi booth ERHAIR untuk informasi lebih lengkap.",hair,produk,hair produk
21,B.20,DI ERHA kamu bisa mendapatkan solusi tepat secara personalized untuk Hair Solution. kita punya rangkaian produk dan program yang cocok buat kamu. Kamu butuh informasi terkait produk atau program?,"Tidak hanya untuk kulit, ERHA Ultimate juga menghadirkan solusi klinis untuk permasalahan rambut, khususnya masalah kerontokan dan kebotakan rambut. ERHA ULTIMATE HAIR CARE sebagai lini brand dari Ultimate Dermabeauty, memberikan berbagai personalized program yang dirancang oleh Dokter/Dermatologist ERHA, untuk segala permasalahan rambut dan kulit kepala. Inovasi terbaru dari ERHA ULTIMATE HAIR CARE adalah Love is in the Hair Program yang merupakan solusi No 1 dari ERHA untuk mengatasi kebotakan rambut. Melalui konsep 5C, Clear Program, Clear Plan, Clear Cost, Clear Duration dan Clear Skin Goals, dapatkan rambut impian Anda dengan solusi personalized dari Dokter/Dermatologist ERHA serta berbagai pilihan treatment dengan alat medis yang canggih dan rangkaian produk yang teruji klinis. Kunjungi booth ERHA ULTIMATE HAIR CARE untuk informasi lengkap terkait program yang tersedia.",hair,program,hair program
22,B.21,DI ERHA kamu bisa mendapatkan solusi tepat secara personalized untuk Sensitive Skin Solution. kita punya rangkaian produk untuk kulit sensitifmu. kamu butuh informasi terkait produk yang tersedia?,"ERHA Skinsitive adalah rangkaian produk yang diformulasikan oleh ahli dermatologi khusus untuk      kulit kering dan sensitif. Dengan keunggulan formula gentle dan hypoallergenic, sehingga tidak rentan memicu reaksi alergi dan aman untuk ibu hamil sekalipun. Inovasi terbaru dari Erha Skinsitive adalah Ultracalm Face Serum, dengan kandungan 5% Stimutex yang efektif meredakan gatal dan kemerahan dalam 5 menit. Kunjungi booth Erha Skinsitive untuk informasi lebih lanjut.",skin,solution,skin solution
23,B.22,DI ERHA kamu bisa mendapatkan solusi tepat secara personalized untuk General Dermatology Solution. jadi kami tidak hanya melayani Cosmetic Dermatology loh. Kamu mau tahu mengenai General Dermatology Solution yang kami miliki?,"Layanan General Dermatology Erha terbagi menjadi dua program yaitu Erha Ultimate Atopy Cure & Erha Ultimate Skin Health. Erha Ultimate Skin Health merupakan pelayanan klinis yang merupakan terapi pengobatan penyakit kulit seperti auto-immune, infeksi kulit, skin tumour dan masalah kukut lainnya. Erha Ultimate Atopy Cure merupakan pelayanan terbaik untuk mengobati masalah dermatitis atopik pada anak, dewasa hingga usia lanjut. Kedua perawatan ini dirancang oleh Dermatologist berpengalaman sebagai terapi terintegrasi untuk setiap individu sesuai dengan masalah dan kebutuhan kulit masing-masing individu.Tentunya juga didukung dengan produk yang telah lulus uji BPOM dan alat terapi yang canggih serta modern Kunjungi booth ERHA ULTIMATE ATOPY CURE untuk informasi lengkap terkait dermatitis atopik dan booth ERHA ULTIMATE SKIN HEALTH untuk tahu masalah kulit yang mungkin dialami dan terapinya serta dapatkan kesempatan menangkan surprise gift menarik dari ERHA ya!",dermatology,solution,dermatology solution
24,B.23,"DI ERHA kamu para pria juga bisa mendapatkan solusi permasalahan kulit & rambut secara personalized. kata siapa perawatan kulit hanya untuk perempuan? ELSA punya informasi rangkaian produk atau program yang tersedia khusus untuk pria, yang mana yang kamu mau tahu?","HISERHA merupakan grooming solution bagi Pria dengan formula yang sudah diverifikasi oleh para Dermatologis. Saat ini kami memiliki berbagai produk untuk wajah, rambut, badan, dan styling. Inovasi terbaru dari HISERHA adalah Acne Guard Cream. Krim untuk merawat kulit jerawat khusus pria dengan UV Protection SPF 30/PA +++ yang melembapkan serta melindungi lo seharian penuh! Kunjungi booth HISERHA sekarang dan dapatkan kesempatan promo menarik!",men,solution,men solution
25,B.24,Apa produk ERHA untuk Pria?,"HISERHA merupakan grooming solution bagi Pria dengan formula yang sudah diverifikasi oleh para Dermatologis. Saat ini kami memiliki berbagai produk untuk wajah, rambut, badan, dan styling. Inovasi terbaru dari HISERHA adalah Acne Guard Cream. Krim untuk merawat kulit jerawat khusus pria dengan UV Protection SPF 30/PA +++ yang melembapkan serta melindungi lo seharian penuh! Kunjungi booth HISERHA sekarang dan dapatkan kesempatan promo menarik!",men,produk,men produk
26,B.25,Apa program ERHA untuk Pria?,"Gentlemen Program untuk men's skin ultimate solution adalah program terbaru dari ERHA ULTIMATE ANTI AGING. Kulit pria membutuhkan perawatan yang tepat saat kulit mengalami tanda penuaan. Gentlemen Program merupakan solusi untuk mengatasi semua permasalahan kulit pada pria seperti kerutan, garis halus, flek hitam & melasma, kulit kendur dan kulit kasar. Skin Goals Wajah tampak segar, kerutan, garis halus, flek hitam & melasma berkurang. Kunjungi booth ERHA ULTIMATE ANTI AGING untuk informasi lengkap terkait program ini.",men,program,men program
27,B.31,Apa program ERHA untuk Pria?,HairBro Program adalah inovasi terbaru dari ERHA Ultimate Hair Care. Merupakan solusi klinis pertama dan No.1 dari ERHA untuk kamu yang ingin menumbuhkan dan melebatkan brewok. Program ini terdiri dari Beard Grow Treatment dengan metode microneedling dan personalized beard products yang bisa bantu maksimalkan penampilan kamu! Get your manly look now with HairBro Program. Karena #LakiHarusLebat. Kunjungi booth ERHA Ultimate Hair Care untuk informasi lengkapnya ya.,men,program,men program
28,B.26,DI ERHA kamu bisa mendapatkan solusi tepat secara personalized untuk mendapatkan bentuk wajah dan tubuh sempurna. Kamu mau tahu mengenai solusi yang kami miliki?,"ERHA ULTIMATE MAKE OVER adalah lini brand dari Ultimate Dermabeauty yang memberikan berbagai pilihan program, solusi bentuk wajah dan tubuh sempurna dengan hasil yang natural. Dengan menggunakan teknologi non bedah, ERHA ULTIMATE MAKE OVER siap membantumu untuk mendapatkan bentuk wajah & tubuh yang sempurna dan proporsional dengan hasil yang natural, serta memperbaiki tekstur kulit dan pori-pori yang besar. Inovasi terbaru dari ERHA ULTIMATE MAKE OVER adalah Shape Your Love Program yang merupakan Ultimate Make Over Solution. Shape Your Love Program merupakan solusi untuk mendapatkan kontur wajah sempurna & proporsional dengan hasil yang natural sehingga kulit wajah menjadi lebih kencang, wajah lebih tirus, hidung lebih mancung, dagu lebih lancip, dan garis rahang yang tegas. Melalui konsep 5C, Clear Program, Clear Plan, Clear Cost, Clear Duration dan Clear Skin Goals,   Anda bisa mendapatkan solusi secara personalized dengan bantuan dari expert dermatologist kami, berbagai pilihan treatment dengan alat medis yang canggih dan rangkaian produk teruji klinis. kunjungi booth ERHA ULTIMATE MAKE OVER untuk informasi lengkap terkait program yang tersedia ya.",make over,solution,make over solution
29,B.27,"DI ERHA kamu bisa temukan solusi perlindungan kulit untuk aktivitasmu sepanjang hari. Bukan hanya perlindungan dari sinar uv, tapi juga berbagai faktor eksternal lainnya yang berefek buruk pada kulitmu. Mau tahu duo produk esensial yang kami miliki?","Di ERHA Innovation Week ini, ERHA PERFECT SHIELD meluncurkan produk terbaru yaitu THE DYNAMIC DUO: Sunscreen Spray dan Urban Skin Defense Refreshing Spray, untuk   perlindungan kulitmu sepenuhnya sepanjang hari dari berbagai faktor eksternal yang berdampak buruk pada kulit, seperti sinar uv, polusi, radikal bebas, radiasi blue light. Dengan format spray yang praktis untuk aplikasi dan re-apply, The Dynamic Duo: Sunscreen Spray dan Urban Skin Defense, dapat menjadi bagian esensial perlindungan kulitmu sehari-hari. Kunjungi ERHA PERFECT SHIELD The Dynamic Duo Booth, untuk mencoba produknya dan dapatkan informasi selengkapnya.",skin,solution,skin solution
30,B.28,DI ERHA kami juga punya solusi untuk si Kecil. kamu mau tahu produk atau program tersedia untuk si kecil?,Little ERHA loreimpsum,children,solution,children solution
31,B.29,DI ERHA kami juga punya solusi untuk si Kecil. kamu mau tahu produk atau program tersedia untuk si kecil?,Little ERHA loreimpsum,children,produk,children produk
32,B.30,DI ERHA kami juga punya solusi untuk si Kecil. kamu mau tahu produk atau program tersedia untuk si kecil?,"Kulit anak yang cenderung lebih rentan dan sensitif dapat mengalami berbagai kondisi atau masalah kulit yang jika dibiarkan dapat mempengaruhi pertumbuhan serta keaktifan mereka. Oleh karena itu, penting untuk melakukan perawatan kulit anak yang tepat pada Dokter Spesialis Kulit berpengalaman yang lebih paham mengenai masalah kulit melalui ERHA ULTIMATE ATOPY CURE dan ERHA ULTIMATE SKIN HEALTH. ERHA ULTIMATE ATOPY CURE siap membantu parents untuk mengatasi berbagai masalah kulit sensitif, eksim susu, eksim popok dan eksim seboroik pada anak dengan regimen terapi yang disesuaikan kebutuhan kulitnya. Sedangkan ERHA ULTIMATE SKIN HEALTH akan mendampingi parents dalam mengobati berbagai masalah kulit anak mulai dari alergi, infeksi, hemangioma hingga psoriasis. Kedua program ini didukung dengan regimen produk yang dirancang oleh skin expert berpengalaman dan teruji BPOM serta alat terapi hi-tech yang tentunya aman untuk anak. Yuk parents, kunjungi booth ERHA ULTIMATE ATOPY CURE untuk tahu tips perawatan eksim pada anak dan ERHA ULTIMATE SKIN HEALTH untuk informasi lebih lanjut terkait masalah kulit anak!",children,program,children program
